2019-09-16 13:36:35.527 +03:00 [Warning] [Microsoft.EntityFrameworkCore.Model.Validation] [{ Id: 30000, Name: "Microsoft.EntityFrameworkCore.Model.Validation.DecimalTypeDefaultWarning" }] No type was specified for the decimal column '"OldPrice"' on entity type '"Product"'. This will cause values to be silently truncated if they do not fit in the default precision and scale. Explicitly specify the SQL server column type that can accommodate all the values using 'HasColumnType()'.
2019-09-16 13:36:35.632 +03:00 [Warning] [Microsoft.EntityFrameworkCore.Model.Validation] [{ Id: 30000, Name: "Microsoft.EntityFrameworkCore.Model.Validation.DecimalTypeDefaultWarning" }] No type was specified for the decimal column '"Price"' on entity type '"Product"'. This will cause values to be silently truncated if they do not fit in the default precision and scale. Explicitly specify the SQL server column type that can accommodate all the values using 'HasColumnType()'.
2019-09-16 13:36:35.632 +03:00 [Warning] [Microsoft.EntityFrameworkCore.Model.Validation] [{ Id: 30000, Name: "Microsoft.EntityFrameworkCore.Model.Validation.DecimalTypeDefaultWarning" }] No type was specified for the decimal column '"SpecialPrice"' on entity type '"Product"'. This will cause values to be silently truncated if they do not fit in the default precision and scale. Explicitly specify the SQL server column type that can accommodate all the values using 'HasColumnType()'.
2019-09-16 13:36:35.633 +03:00 [Warning] [Microsoft.EntityFrameworkCore.Model.Validation] [{ Id: 30000, Name: "Microsoft.EntityFrameworkCore.Model.Validation.DecimalTypeDefaultWarning" }] No type was specified for the decimal column '"OldPrice"' on entity type '"ProductPriceHistory"'. This will cause values to be silently truncated if they do not fit in the default precision and scale. Explicitly specify the SQL server column type that can accommodate all the values using 'HasColumnType()'.
2019-09-16 13:36:35.633 +03:00 [Warning] [Microsoft.EntityFrameworkCore.Model.Validation] [{ Id: 30000, Name: "Microsoft.EntityFrameworkCore.Model.Validation.DecimalTypeDefaultWarning" }] No type was specified for the decimal column '"Price"' on entity type '"ProductPriceHistory"'. This will cause values to be silently truncated if they do not fit in the default precision and scale. Explicitly specify the SQL server column type that can accommodate all the values using 'HasColumnType()'.
2019-09-16 13:36:35.633 +03:00 [Warning] [Microsoft.EntityFrameworkCore.Model.Validation] [{ Id: 30000, Name: "Microsoft.EntityFrameworkCore.Model.Validation.DecimalTypeDefaultWarning" }] No type was specified for the decimal column '"SpecialPrice"' on entity type '"ProductPriceHistory"'. This will cause values to be silently truncated if they do not fit in the default precision and scale. Explicitly specify the SQL server column type that can accommodate all the values using 'HasColumnType()'.
2019-09-16 13:36:35.633 +03:00 [Warning] [Microsoft.EntityFrameworkCore.Model.Validation] [{ Id: 30000, Name: "Microsoft.EntityFrameworkCore.Model.Validation.DecimalTypeDefaultWarning" }] No type was specified for the decimal column '"Discount"' on entity type '"Vendor"'. This will cause values to be silently truncated if they do not fit in the default precision and scale. Explicitly specify the SQL server column type that can accommodate all the values using 'HasColumnType()'.
2019-09-16 13:36:35.633 +03:00 [Warning] [Microsoft.EntityFrameworkCore.Model.Validation] [{ Id: 30000, Name: "Microsoft.EntityFrameworkCore.Model.Validation.DecimalTypeDefaultWarning" }] No type was specified for the decimal column '"DiscountAmount"' on entity type '"Order"'. This will cause values to be silently truncated if they do not fit in the default precision and scale. Explicitly specify the SQL server column type that can accommodate all the values using 'HasColumnType()'.
2019-09-16 13:36:35.633 +03:00 [Warning] [Microsoft.EntityFrameworkCore.Model.Validation] [{ Id: 30000, Name: "Microsoft.EntityFrameworkCore.Model.Validation.DecimalTypeDefaultWarning" }] No type was specified for the decimal column '"OrderTotal"' on entity type '"Order"'. This will cause values to be silently truncated if they do not fit in the default precision and scale. Explicitly specify the SQL server column type that can accommodate all the values using 'HasColumnType()'.
2019-09-16 13:36:35.633 +03:00 [Warning] [Microsoft.EntityFrameworkCore.Model.Validation] [{ Id: 30000, Name: "Microsoft.EntityFrameworkCore.Model.Validation.DecimalTypeDefaultWarning" }] No type was specified for the decimal column '"PaymentFeeAmount"' on entity type '"Order"'. This will cause values to be silently truncated if they do not fit in the default precision and scale. Explicitly specify the SQL server column type that can accommodate all the values using 'HasColumnType()'.
2019-09-16 13:36:35.633 +03:00 [Warning] [Microsoft.EntityFrameworkCore.Model.Validation] [{ Id: 30000, Name: "Microsoft.EntityFrameworkCore.Model.Validation.DecimalTypeDefaultWarning" }] No type was specified for the decimal column '"ShippingFeeAmount"' on entity type '"Order"'. This will cause values to be silently truncated if they do not fit in the default precision and scale. Explicitly specify the SQL server column type that can accommodate all the values using 'HasColumnType()'.
2019-09-16 13:36:35.633 +03:00 [Warning] [Microsoft.EntityFrameworkCore.Model.Validation] [{ Id: 30000, Name: "Microsoft.EntityFrameworkCore.Model.Validation.DecimalTypeDefaultWarning" }] No type was specified for the decimal column '"SubTotal"' on entity type '"Order"'. This will cause values to be silently truncated if they do not fit in the default precision and scale. Explicitly specify the SQL server column type that can accommodate all the values using 'HasColumnType()'.
2019-09-16 13:36:35.633 +03:00 [Warning] [Microsoft.EntityFrameworkCore.Model.Validation] [{ Id: 30000, Name: "Microsoft.EntityFrameworkCore.Model.Validation.DecimalTypeDefaultWarning" }] No type was specified for the decimal column '"SubTotalWithDiscount"' on entity type '"Order"'. This will cause values to be silently truncated if they do not fit in the default precision and scale. Explicitly specify the SQL server column type that can accommodate all the values using 'HasColumnType()'.
2019-09-16 13:36:35.633 +03:00 [Warning] [Microsoft.EntityFrameworkCore.Model.Validation] [{ Id: 30000, Name: "Microsoft.EntityFrameworkCore.Model.Validation.DecimalTypeDefaultWarning" }] No type was specified for the decimal column '"TaxAmount"' on entity type '"Order"'. This will cause values to be silently truncated if they do not fit in the default precision and scale. Explicitly specify the SQL server column type that can accommodate all the values using 'HasColumnType()'.
2019-09-16 13:36:35.633 +03:00 [Warning] [Microsoft.EntityFrameworkCore.Model.Validation] [{ Id: 30000, Name: "Microsoft.EntityFrameworkCore.Model.Validation.DecimalTypeDefaultWarning" }] No type was specified for the decimal column '"Tips"' on entity type '"Order"'. This will cause values to be silently truncated if they do not fit in the default precision and scale. Explicitly specify the SQL server column type that can accommodate all the values using 'HasColumnType()'.
2019-09-16 13:36:35.633 +03:00 [Warning] [Microsoft.EntityFrameworkCore.Model.Validation] [{ Id: 30000, Name: "Microsoft.EntityFrameworkCore.Model.Validation.DecimalTypeDefaultWarning" }] No type was specified for the decimal column '"DiscountAmount"' on entity type '"OrderItem"'. This will cause values to be silently truncated if they do not fit in the default precision and scale. Explicitly specify the SQL server column type that can accommodate all the values using 'HasColumnType()'.
2019-09-16 13:36:35.633 +03:00 [Warning] [Microsoft.EntityFrameworkCore.Model.Validation] [{ Id: 30000, Name: "Microsoft.EntityFrameworkCore.Model.Validation.DecimalTypeDefaultWarning" }] No type was specified for the decimal column '"ProductPrice"' on entity type '"OrderItem"'. This will cause values to be silently truncated if they do not fit in the default precision and scale. Explicitly specify the SQL server column type that can accommodate all the values using 'HasColumnType()'.
2019-09-16 13:36:35.633 +03:00 [Warning] [Microsoft.EntityFrameworkCore.Model.Validation] [{ Id: 30000, Name: "Microsoft.EntityFrameworkCore.Model.Validation.DecimalTypeDefaultWarning" }] No type was specified for the decimal column '"TaxAmount"' on entity type '"OrderItem"'. This will cause values to be silently truncated if they do not fit in the default precision and scale. Explicitly specify the SQL server column type that can accommodate all the values using 'HasColumnType()'.
2019-09-16 13:36:35.633 +03:00 [Warning] [Microsoft.EntityFrameworkCore.Model.Validation] [{ Id: 30000, Name: "Microsoft.EntityFrameworkCore.Model.Validation.DecimalTypeDefaultWarning" }] No type was specified for the decimal column '"TaxPercent"' on entity type '"OrderItem"'. This will cause values to be silently truncated if they do not fit in the default precision and scale. Explicitly specify the SQL server column type that can accommodate all the values using 'HasColumnType()'.
2019-09-16 13:36:35.633 +03:00 [Warning] [Microsoft.EntityFrameworkCore.Model.Validation] [{ Id: 30000, Name: "Microsoft.EntityFrameworkCore.Model.Validation.DecimalTypeDefaultWarning" }] No type was specified for the decimal column '"Amount"' on entity type '"Payment"'. This will cause values to be silently truncated if they do not fit in the default precision and scale. Explicitly specify the SQL server column type that can accommodate all the values using 'HasColumnType()'.
2019-09-16 13:36:35.633 +03:00 [Warning] [Microsoft.EntityFrameworkCore.Model.Validation] [{ Id: 30000, Name: "Microsoft.EntityFrameworkCore.Model.Validation.DecimalTypeDefaultWarning" }] No type was specified for the decimal column '"PaymentFee"' on entity type '"Payment"'. This will cause values to be silently truncated if they do not fit in the default precision and scale. Explicitly specify the SQL server column type that can accommodate all the values using 'HasColumnType()'.
2019-09-16 13:36:35.633 +03:00 [Warning] [Microsoft.EntityFrameworkCore.Model.Validation] [{ Id: 30000, Name: "Microsoft.EntityFrameworkCore.Model.Validation.DecimalTypeDefaultWarning" }] No type was specified for the decimal column '"DiscountAmount"' on entity type '"CartRule"'. This will cause values to be silently truncated if they do not fit in the default precision and scale. Explicitly specify the SQL server column type that can accommodate all the values using 'HasColumnType()'.
2019-09-16 13:36:35.633 +03:00 [Warning] [Microsoft.EntityFrameworkCore.Model.Validation] [{ Id: 30000, Name: "Microsoft.EntityFrameworkCore.Model.Validation.DecimalTypeDefaultWarning" }] No type was specified for the decimal column '"MaxDiscountAmount"' on entity type '"CartRule"'. This will cause values to be silently truncated if they do not fit in the default precision and scale. Explicitly specify the SQL server column type that can accommodate all the values using 'HasColumnType()'.
2019-09-16 13:36:35.633 +03:00 [Warning] [Microsoft.EntityFrameworkCore.Model.Validation] [{ Id: 30000, Name: "Microsoft.EntityFrameworkCore.Model.Validation.DecimalTypeDefaultWarning" }] No type was specified for the decimal column '"DiscountAmount"' on entity type '"CatalogRule"'. This will cause values to be silently truncated if they do not fit in the default precision and scale. Explicitly specify the SQL server column type that can accommodate all the values using 'HasColumnType()'.
2019-09-16 13:36:35.633 +03:00 [Warning] [Microsoft.EntityFrameworkCore.Model.Validation] [{ Id: 30000, Name: "Microsoft.EntityFrameworkCore.Model.Validation.DecimalTypeDefaultWarning" }] No type was specified for the decimal column '"MaxDiscountAmount"' on entity type '"CatalogRule"'. This will cause values to be silently truncated if they do not fit in the default precision and scale. Explicitly specify the SQL server column type that can accommodate all the values using 'HasColumnType()'.
2019-09-16 13:36:35.633 +03:00 [Warning] [Microsoft.EntityFrameworkCore.Model.Validation] [{ Id: 30000, Name: "Microsoft.EntityFrameworkCore.Model.Validation.DecimalTypeDefaultWarning" }] No type was specified for the decimal column '"ShippingAmount"' on entity type '"Cart"'. This will cause values to be silently truncated if they do not fit in the default precision and scale. Explicitly specify the SQL server column type that can accommodate all the values using 'HasColumnType()'.
2019-09-16 13:36:35.634 +03:00 [Warning] [Microsoft.EntityFrameworkCore.Model.Validation] [{ Id: 30000, Name: "Microsoft.EntityFrameworkCore.Model.Validation.DecimalTypeDefaultWarning" }] No type was specified for the decimal column '"TaxAmount"' on entity type '"Cart"'. This will cause values to be silently truncated if they do not fit in the default precision and scale. Explicitly specify the SQL server column type that can accommodate all the values using 'HasColumnType()'.
2019-09-16 13:36:35.634 +03:00 [Warning] [Microsoft.EntityFrameworkCore.Model.Validation] [{ Id: 30000, Name: "Microsoft.EntityFrameworkCore.Model.Validation.DecimalTypeDefaultWarning" }] No type was specified for the decimal column '"Rate"' on entity type '"TaxRate"'. This will cause values to be silently truncated if they do not fit in the default precision and scale. Explicitly specify the SQL server column type that can accommodate all the values using 'HasColumnType()'.
2019-09-16 13:36:36.228 +03:00 [Warning] [Microsoft.EntityFrameworkCore.Model.Validation] [{ Id: 30000, Name: "Microsoft.EntityFrameworkCore.Model.Validation.DecimalTypeDefaultWarning" }] No type was specified for the decimal column '"OldPrice"' on entity type '"Product"'. This will cause values to be silently truncated if they do not fit in the default precision and scale. Explicitly specify the SQL server column type that can accommodate all the values using 'HasColumnType()'.
2019-09-16 13:36:36.228 +03:00 [Warning] [Microsoft.EntityFrameworkCore.Model.Validation] [{ Id: 30000, Name: "Microsoft.EntityFrameworkCore.Model.Validation.DecimalTypeDefaultWarning" }] No type was specified for the decimal column '"Price"' on entity type '"Product"'. This will cause values to be silently truncated if they do not fit in the default precision and scale. Explicitly specify the SQL server column type that can accommodate all the values using 'HasColumnType()'.
2019-09-16 13:36:36.228 +03:00 [Warning] [Microsoft.EntityFrameworkCore.Model.Validation] [{ Id: 30000, Name: "Microsoft.EntityFrameworkCore.Model.Validation.DecimalTypeDefaultWarning" }] No type was specified for the decimal column '"SpecialPrice"' on entity type '"Product"'. This will cause values to be silently truncated if they do not fit in the default precision and scale. Explicitly specify the SQL server column type that can accommodate all the values using 'HasColumnType()'.
2019-09-16 13:36:36.229 +03:00 [Warning] [Microsoft.EntityFrameworkCore.Model.Validation] [{ Id: 30000, Name: "Microsoft.EntityFrameworkCore.Model.Validation.DecimalTypeDefaultWarning" }] No type was specified for the decimal column '"OldPrice"' on entity type '"ProductPriceHistory"'. This will cause values to be silently truncated if they do not fit in the default precision and scale. Explicitly specify the SQL server column type that can accommodate all the values using 'HasColumnType()'.
2019-09-16 13:36:36.229 +03:00 [Warning] [Microsoft.EntityFrameworkCore.Model.Validation] [{ Id: 30000, Name: "Microsoft.EntityFrameworkCore.Model.Validation.DecimalTypeDefaultWarning" }] No type was specified for the decimal column '"Price"' on entity type '"ProductPriceHistory"'. This will cause values to be silently truncated if they do not fit in the default precision and scale. Explicitly specify the SQL server column type that can accommodate all the values using 'HasColumnType()'.
2019-09-16 13:36:36.229 +03:00 [Warning] [Microsoft.EntityFrameworkCore.Model.Validation] [{ Id: 30000, Name: "Microsoft.EntityFrameworkCore.Model.Validation.DecimalTypeDefaultWarning" }] No type was specified for the decimal column '"SpecialPrice"' on entity type '"ProductPriceHistory"'. This will cause values to be silently truncated if they do not fit in the default precision and scale. Explicitly specify the SQL server column type that can accommodate all the values using 'HasColumnType()'.
2019-09-16 13:36:36.229 +03:00 [Warning] [Microsoft.EntityFrameworkCore.Model.Validation] [{ Id: 30000, Name: "Microsoft.EntityFrameworkCore.Model.Validation.DecimalTypeDefaultWarning" }] No type was specified for the decimal column '"Discount"' on entity type '"Vendor"'. This will cause values to be silently truncated if they do not fit in the default precision and scale. Explicitly specify the SQL server column type that can accommodate all the values using 'HasColumnType()'.
2019-09-16 13:36:36.229 +03:00 [Warning] [Microsoft.EntityFrameworkCore.Model.Validation] [{ Id: 30000, Name: "Microsoft.EntityFrameworkCore.Model.Validation.DecimalTypeDefaultWarning" }] No type was specified for the decimal column '"DiscountAmount"' on entity type '"Order"'. This will cause values to be silently truncated if they do not fit in the default precision and scale. Explicitly specify the SQL server column type that can accommodate all the values using 'HasColumnType()'.
2019-09-16 13:36:36.229 +03:00 [Warning] [Microsoft.EntityFrameworkCore.Model.Validation] [{ Id: 30000, Name: "Microsoft.EntityFrameworkCore.Model.Validation.DecimalTypeDefaultWarning" }] No type was specified for the decimal column '"OrderTotal"' on entity type '"Order"'. This will cause values to be silently truncated if they do not fit in the default precision and scale. Explicitly specify the SQL server column type that can accommodate all the values using 'HasColumnType()'.
2019-09-16 13:36:36.229 +03:00 [Warning] [Microsoft.EntityFrameworkCore.Model.Validation] [{ Id: 30000, Name: "Microsoft.EntityFrameworkCore.Model.Validation.DecimalTypeDefaultWarning" }] No type was specified for the decimal column '"PaymentFeeAmount"' on entity type '"Order"'. This will cause values to be silently truncated if they do not fit in the default precision and scale. Explicitly specify the SQL server column type that can accommodate all the values using 'HasColumnType()'.
2019-09-16 13:36:36.229 +03:00 [Warning] [Microsoft.EntityFrameworkCore.Model.Validation] [{ Id: 30000, Name: "Microsoft.EntityFrameworkCore.Model.Validation.DecimalTypeDefaultWarning" }] No type was specified for the decimal column '"ShippingFeeAmount"' on entity type '"Order"'. This will cause values to be silently truncated if they do not fit in the default precision and scale. Explicitly specify the SQL server column type that can accommodate all the values using 'HasColumnType()'.
2019-09-16 13:36:36.229 +03:00 [Warning] [Microsoft.EntityFrameworkCore.Model.Validation] [{ Id: 30000, Name: "Microsoft.EntityFrameworkCore.Model.Validation.DecimalTypeDefaultWarning" }] No type was specified for the decimal column '"SubTotal"' on entity type '"Order"'. This will cause values to be silently truncated if they do not fit in the default precision and scale. Explicitly specify the SQL server column type that can accommodate all the values using 'HasColumnType()'.
2019-09-16 13:36:36.229 +03:00 [Warning] [Microsoft.EntityFrameworkCore.Model.Validation] [{ Id: 30000, Name: "Microsoft.EntityFrameworkCore.Model.Validation.DecimalTypeDefaultWarning" }] No type was specified for the decimal column '"SubTotalWithDiscount"' on entity type '"Order"'. This will cause values to be silently truncated if they do not fit in the default precision and scale. Explicitly specify the SQL server column type that can accommodate all the values using 'HasColumnType()'.
2019-09-16 13:36:36.229 +03:00 [Warning] [Microsoft.EntityFrameworkCore.Model.Validation] [{ Id: 30000, Name: "Microsoft.EntityFrameworkCore.Model.Validation.DecimalTypeDefaultWarning" }] No type was specified for the decimal column '"TaxAmount"' on entity type '"Order"'. This will cause values to be silently truncated if they do not fit in the default precision and scale. Explicitly specify the SQL server column type that can accommodate all the values using 'HasColumnType()'.
2019-09-16 13:36:36.229 +03:00 [Warning] [Microsoft.EntityFrameworkCore.Model.Validation] [{ Id: 30000, Name: "Microsoft.EntityFrameworkCore.Model.Validation.DecimalTypeDefaultWarning" }] No type was specified for the decimal column '"Tips"' on entity type '"Order"'. This will cause values to be silently truncated if they do not fit in the default precision and scale. Explicitly specify the SQL server column type that can accommodate all the values using 'HasColumnType()'.
2019-09-16 13:36:36.229 +03:00 [Warning] [Microsoft.EntityFrameworkCore.Model.Validation] [{ Id: 30000, Name: "Microsoft.EntityFrameworkCore.Model.Validation.DecimalTypeDefaultWarning" }] No type was specified for the decimal column '"DiscountAmount"' on entity type '"OrderItem"'. This will cause values to be silently truncated if they do not fit in the default precision and scale. Explicitly specify the SQL server column type that can accommodate all the values using 'HasColumnType()'.
2019-09-16 13:36:36.229 +03:00 [Warning] [Microsoft.EntityFrameworkCore.Model.Validation] [{ Id: 30000, Name: "Microsoft.EntityFrameworkCore.Model.Validation.DecimalTypeDefaultWarning" }] No type was specified for the decimal column '"ProductPrice"' on entity type '"OrderItem"'. This will cause values to be silently truncated if they do not fit in the default precision and scale. Explicitly specify the SQL server column type that can accommodate all the values using 'HasColumnType()'.
2019-09-16 13:36:36.230 +03:00 [Warning] [Microsoft.EntityFrameworkCore.Model.Validation] [{ Id: 30000, Name: "Microsoft.EntityFrameworkCore.Model.Validation.DecimalTypeDefaultWarning" }] No type was specified for the decimal column '"TaxAmount"' on entity type '"OrderItem"'. This will cause values to be silently truncated if they do not fit in the default precision and scale. Explicitly specify the SQL server column type that can accommodate all the values using 'HasColumnType()'.
2019-09-16 13:36:36.230 +03:00 [Warning] [Microsoft.EntityFrameworkCore.Model.Validation] [{ Id: 30000, Name: "Microsoft.EntityFrameworkCore.Model.Validation.DecimalTypeDefaultWarning" }] No type was specified for the decimal column '"TaxPercent"' on entity type '"OrderItem"'. This will cause values to be silently truncated if they do not fit in the default precision and scale. Explicitly specify the SQL server column type that can accommodate all the values using 'HasColumnType()'.
2019-09-16 13:36:36.230 +03:00 [Warning] [Microsoft.EntityFrameworkCore.Model.Validation] [{ Id: 30000, Name: "Microsoft.EntityFrameworkCore.Model.Validation.DecimalTypeDefaultWarning" }] No type was specified for the decimal column '"Amount"' on entity type '"Payment"'. This will cause values to be silently truncated if they do not fit in the default precision and scale. Explicitly specify the SQL server column type that can accommodate all the values using 'HasColumnType()'.
2019-09-16 13:36:36.230 +03:00 [Warning] [Microsoft.EntityFrameworkCore.Model.Validation] [{ Id: 30000, Name: "Microsoft.EntityFrameworkCore.Model.Validation.DecimalTypeDefaultWarning" }] No type was specified for the decimal column '"PaymentFee"' on entity type '"Payment"'. This will cause values to be silently truncated if they do not fit in the default precision and scale. Explicitly specify the SQL server column type that can accommodate all the values using 'HasColumnType()'.
2019-09-16 13:36:36.230 +03:00 [Warning] [Microsoft.EntityFrameworkCore.Model.Validation] [{ Id: 30000, Name: "Microsoft.EntityFrameworkCore.Model.Validation.DecimalTypeDefaultWarning" }] No type was specified for the decimal column '"DiscountAmount"' on entity type '"CartRule"'. This will cause values to be silently truncated if they do not fit in the default precision and scale. Explicitly specify the SQL server column type that can accommodate all the values using 'HasColumnType()'.
2019-09-16 13:36:36.230 +03:00 [Warning] [Microsoft.EntityFrameworkCore.Model.Validation] [{ Id: 30000, Name: "Microsoft.EntityFrameworkCore.Model.Validation.DecimalTypeDefaultWarning" }] No type was specified for the decimal column '"MaxDiscountAmount"' on entity type '"CartRule"'. This will cause values to be silently truncated if they do not fit in the default precision and scale. Explicitly specify the SQL server column type that can accommodate all the values using 'HasColumnType()'.
2019-09-16 13:36:36.230 +03:00 [Warning] [Microsoft.EntityFrameworkCore.Model.Validation] [{ Id: 30000, Name: "Microsoft.EntityFrameworkCore.Model.Validation.DecimalTypeDefaultWarning" }] No type was specified for the decimal column '"DiscountAmount"' on entity type '"CatalogRule"'. This will cause values to be silently truncated if they do not fit in the default precision and scale. Explicitly specify the SQL server column type that can accommodate all the values using 'HasColumnType()'.
2019-09-16 13:36:36.230 +03:00 [Warning] [Microsoft.EntityFrameworkCore.Model.Validation] [{ Id: 30000, Name: "Microsoft.EntityFrameworkCore.Model.Validation.DecimalTypeDefaultWarning" }] No type was specified for the decimal column '"MaxDiscountAmount"' on entity type '"CatalogRule"'. This will cause values to be silently truncated if they do not fit in the default precision and scale. Explicitly specify the SQL server column type that can accommodate all the values using 'HasColumnType()'.
2019-09-16 13:36:36.230 +03:00 [Warning] [Microsoft.EntityFrameworkCore.Model.Validation] [{ Id: 30000, Name: "Microsoft.EntityFrameworkCore.Model.Validation.DecimalTypeDefaultWarning" }] No type was specified for the decimal column '"ShippingAmount"' on entity type '"Cart"'. This will cause values to be silently truncated if they do not fit in the default precision and scale. Explicitly specify the SQL server column type that can accommodate all the values using 'HasColumnType()'.
2019-09-16 13:36:36.230 +03:00 [Warning] [Microsoft.EntityFrameworkCore.Model.Validation] [{ Id: 30000, Name: "Microsoft.EntityFrameworkCore.Model.Validation.DecimalTypeDefaultWarning" }] No type was specified for the decimal column '"TaxAmount"' on entity type '"Cart"'. This will cause values to be silently truncated if they do not fit in the default precision and scale. Explicitly specify the SQL server column type that can accommodate all the values using 'HasColumnType()'.
2019-09-16 13:36:36.230 +03:00 [Warning] [Microsoft.EntityFrameworkCore.Model.Validation] [{ Id: 30000, Name: "Microsoft.EntityFrameworkCore.Model.Validation.DecimalTypeDefaultWarning" }] No type was specified for the decimal column '"Rate"' on entity type '"TaxRate"'. This will cause values to be silently truncated if they do not fit in the default precision and scale. Explicitly specify the SQL server column type that can accommodate all the values using 'HasColumnType()'.
2019-09-16 13:36:37.830 +03:00 [Error] [Microsoft.AspNetCore.Diagnostics.DeveloperExceptionPageMiddleware] [{ Id: 1, Name: "UnhandledException" }] An unhandled exception has occurred while executing the request.
System.InvalidOperationException: The partial view '_WidgetInstances' was not found. The following locations were searched:
/Areas/Core/Views/Home/_WidgetInstances.en-US.cshtml
/Areas/Core/Views/Home/_WidgetInstances.en.cshtml
/Areas/Core/Views/Home/_WidgetInstances.cshtml
/Areas/Core/Views/Shared/_WidgetInstances.en-US.cshtml
/Areas/Core/Views/Shared/_WidgetInstances.en.cshtml
/Areas/Core/Views/Shared/_WidgetInstances.cshtml
/Views/Shared/_WidgetInstances.en-US.cshtml
/Views/Shared/_WidgetInstances.en.cshtml
/Views/Shared/_WidgetInstances.cshtml
/Pages/Shared/_WidgetInstances.en-US.cshtml
/Pages/Shared/_WidgetInstances.en.cshtml
/Pages/Shared/_WidgetInstances.cshtml
   at Microsoft.AspNetCore.Mvc.TagHelpers.PartialTagHelper.ProcessAsync(TagHelperContext context, TagHelperOutput output)
   at Microsoft.AspNetCore.Razor.Runtime.TagHelpers.TagHelperRunner.RunAsync(TagHelperExecutionContext executionContext)
   at AspNetCore.Areas_Core_Views_Home_Index.ExecuteAsync() in F:\dotnetcore\projects\BobCommerce\BobCommerce.Module.Core\Areas\Core\Views\Home\Index.cshtml:line 7
   at Microsoft.AspNetCore.Mvc.Razor.RazorView.RenderPageCoreAsync(IRazorPage page, ViewContext context)
   at Microsoft.AspNetCore.Mvc.Razor.RazorView.RenderPageAsync(IRazorPage page, ViewContext context, Boolean invokeViewStarts)
   at Microsoft.AspNetCore.Mvc.Razor.RazorView.RenderAsync(ViewContext context)
   at Microsoft.AspNetCore.Mvc.ViewFeatures.ViewExecutor.ExecuteAsync(ViewContext viewContext, String contentType, Nullable`1 statusCode)
   at Microsoft.AspNetCore.Mvc.ViewFeatures.ViewExecutor.ExecuteAsync(ActionContext actionContext, IView view, ViewDataDictionary viewData, ITempDataDictionary tempData, String contentType, Nullable`1 statusCode)
   at Microsoft.AspNetCore.Mvc.ViewFeatures.ViewResultExecutor.ExecuteAsync(ActionContext context, ViewResult result)
   at Microsoft.AspNetCore.Mvc.ViewResult.ExecuteResultAsync(ActionContext context)
   at Microsoft.AspNetCore.Mvc.Internal.ResourceInvoker.InvokeResultAsync(IActionResult result)
   at Microsoft.AspNetCore.Mvc.Internal.ResourceInvoker.InvokeNextResultFilterAsync[TFilter,TFilterAsync]()
   at Microsoft.AspNetCore.Mvc.Internal.ResourceInvoker.Rethrow(ResultExecutedContext context)
   at Microsoft.AspNetCore.Mvc.Internal.ResourceInvoker.ResultNext[TFilter,TFilterAsync](State& next, Scope& scope, Object& state, Boolean& isCompleted)
   at Microsoft.AspNetCore.Mvc.Internal.ResourceInvoker.InvokeResultFilters()
   at Microsoft.AspNetCore.Mvc.Internal.ResourceInvoker.InvokeNextResourceFilter()
   at Microsoft.AspNetCore.Mvc.Internal.ResourceInvoker.Rethrow(ResourceExecutedContext context)
   at Microsoft.AspNetCore.Mvc.Internal.ResourceInvoker.Next(State& next, Scope& scope, Object& state, Boolean& isCompleted)
   at Microsoft.AspNetCore.Mvc.Internal.ResourceInvoker.InvokeFilterPipelineAsync()
   at Microsoft.AspNetCore.Mvc.Internal.ResourceInvoker.InvokeAsync()
   at Microsoft.AspNetCore.Builder.RouterMiddleware.Invoke(HttpContext httpContext)
   at Microsoft.AspNetCore.Localization.RequestLocalizationMiddleware.Invoke(HttpContext context)
   at Microsoft.AspNetCore.Authentication.AuthenticationMiddleware.Invoke(HttpContext context)
   at Microsoft.AspNetCore.StaticFiles.StaticFileMiddleware.Invoke(HttpContext context)
   at Swashbuckle.AspNetCore.SwaggerUI.SwaggerUIMiddleware.Invoke(HttpContext httpContext)
   at Swashbuckle.AspNetCore.Swagger.SwaggerMiddleware.Invoke(HttpContext httpContext, ISwaggerProvider swaggerProvider)
   at Microsoft.AspNetCore.StaticFiles.StaticFileMiddleware.Invoke(HttpContext context)
   at Microsoft.AspNetCore.Diagnostics.StatusCodePagesMiddleware.Invoke(HttpContext context)
   at Microsoft.AspNetCore.Diagnostics.EntityFrameworkCore.MigrationsEndPointMiddleware.Invoke(HttpContext context)
   at Microsoft.AspNetCore.Diagnostics.EntityFrameworkCore.DatabaseErrorPageMiddleware.Invoke(HttpContext httpContext)
   at Microsoft.AspNetCore.Diagnostics.EntityFrameworkCore.DatabaseErrorPageMiddleware.Invoke(HttpContext httpContext)
   at Microsoft.AspNetCore.Diagnostics.DeveloperExceptionPageMiddleware.Invoke(HttpContext context)
2019-09-16 14:15:51.565 +03:00 [Warning] [Microsoft.EntityFrameworkCore.Query] [{ Id: 10106, Name: "Microsoft.EntityFrameworkCore.Query.IncludeIgnoredWarning" }] The Include operation for navigation '"[x].ThumbnailImage"' is unnecessary and was ignored because the navigation is not reachable in the final query results. See https://go.microsoft.com/fwlink/?linkid=850303 for more information.
2019-09-16 14:15:51.569 +03:00 [Warning] [Microsoft.EntityFrameworkCore.Query] [{ Id: 10106, Name: "Microsoft.EntityFrameworkCore.Query.IncludeIgnoredWarning" }] The Include operation for navigation '"[x].Rating"' is unnecessary and was ignored because the navigation is not reachable in the final query results. See https://go.microsoft.com/fwlink/?linkid=850303 for more information.
