7/25/2019 11:01:48 AM
CreatePayment - PaymentId: PAYID-LU4WD2Y03S78254JD412672U ApprovalUrl: https://www.sandbox.paypal.com/cgi-bin/webscr?cmd=_express-checkout&token=EC-0FT09486GJ043452T
7/25/2019 11:24:09 AM
CreatePayment - PaymentId: PAYID-LU4WOJY6V514864KX142045T ApprovalUrl: https://www.sandbox.paypal.com/cgi-bin/webscr?cmd=_express-checkout&token=EC-2G73896696469441G
7/25/2019 11:25:19 AM
ExecutePayment - PaymentId: PAYID-LU4WOJY6V514864KX142045T PayerID: XN6UB5TLWDDPU
7/25/2019 11:29:56 AM
CreatePayment - PaymentId: PAYID-LU4WRAQ81Y89425PP2737823 ApprovalUrl: https://www.sandbox.paypal.com/cgi-bin/webscr?cmd=_express-checkout&token=EC-55K75107B0423723Y
7/25/2019 11:31:30 AM
ExecutePayment - PaymentId: PAYID-LU4WRAQ81Y89425PP2737823 PayerID: XN6UB5TLWDDPU
7/25/2019 11:36:47 AM
CreatePayment - PaymentId: PAYID-LU4WUHI92E86013EA948000C ApprovalUrl: https://www.sandbox.paypal.com/cgi-bin/webscr?cmd=_express-checkout&token=EC-0YT30015CD205730G
7/25/2019 11:46:19 AM
ExecutePayment - PaymentId: PAYID-LU4WUHI92E86013EA948000C PayerID: XN6UB5TLWDDPU
7/25/2019 11:46:57 AM
CreatePayment - PaymentId: PAYID-LU4WZAA7A513128GX0051024 ApprovalUrl: https://www.sandbox.paypal.com/cgi-bin/webscr?cmd=_express-checkout&token=EC-8M864253LP648924J
7/25/2019 11:49:33 AM
ExecutePayment - PaymentId: PAYID-LU4WZAA7A513128GX0051024 PayerID: XN6UB5TLWDDPU
7/25/2019 12:24:17 PM
CreatePayment - PaymentId: PAYID-LU4XKPY5WC343033J819201F ApprovalUrl: https://www.sandbox.paypal.com/cgi-bin/webscr?cmd=_express-checkout&token=EC-6RB74969JY276560B
7/25/2019 12:25:27 PM
ExecutePayment - Discount applied successfully
7/25/2019 12:25:30 PM
ExecutePayment - PaymentId: PAYID-LU4XKPY5WC343033J819201F PayerID: XN6UB5TLWDDPU
7/25/2019 12:35:24 PM
CreatePayment - PaymentId: PAYID-LU4XPWY6WX2611532851124N ApprovalUrl: https://www.sandbox.paypal.com/cgi-bin/webscr?cmd=_express-checkout&token=EC-2LA19888KE935751R
7/25/2019 12:37:00 PM
ExecutePayment - Discount applied successfully
7/25/2019 12:37:53 PM
ExecutePayment - PaymentId: PAYID-LU4XPWY6WX2611532851124N PayerID: XN6UB5TLWDDPU
7/25/2019 12:44:56 PM
CreatePayment - PaymentId: PAYID-LU4XUFQ5S20566561056040N ApprovalUrl: https://www.sandbox.paypal.com/cgi-bin/webscr?cmd=_express-checkout&token=EC-6H627960TJ7006242
7/25/2019 12:47:11 PM
ExecutePayment - Discount applied successfully
7/25/2019 12:47:33 PM
ExecutePayment - PaymentId: PAYID-LU4XUFQ5S20566561056040N PayerID: XN6UB5TLWDDPU
7/25/2019 12:56:25 PM
CreatePayment - PaymentId: PAYID-LU4XZRY9AE39378F9716230A ApprovalUrl: https://www.sandbox.paypal.com/cgi-bin/webscr?cmd=_express-checkout&token=EC-6A127951J47890849
7/25/2019 12:57:19 PM
ExecutePayment - Discount applied successfully
7/25/2019 12:57:21 PM
ExecutePayment - PaymentId: PAYID-LU4XZRY9AE39378F9716230A PayerID: XN6UB5TLWDDPU
7/25/2019 1:34:35 PM
ExecutePayment - Discount applied successfully
7/25/2019 2:42:01 PM
CreatePayment - PaymentId: PAYID-LU4ZLBY8U982765J2430383B ApprovalUrl: https://www.sandbox.paypal.com/cgi-bin/webscr?cmd=_express-checkout&token=EC-4TB581614K038693Y
7/25/2019 2:54:57 PM
ExecutePayment - Discount applied successfully
7/25/2019 3:04:13 PM
CreatePayment - PaymentId: PAYID-LU4ZVOY4U158796BJ3592832 ApprovalUrl: https://www.sandbox.paypal.com/cgi-bin/webscr?cmd=_express-checkout&token=EC-70U624930T999193Y
