8/22/2019 9:31:12 AM
StartAsync
8/22/2019 9:31:13 AM
DoWork is running
8/22/2019 9:36:13 AM
DoWork is running
8/22/2019 9:41:13 AM
DoWork is running
8/22/2019 9:46:13 AM
DoWork is running
8/22/2019 9:51:13 AM
DoWork is running
8/22/2019 9:56:13 AM
DoWork is running
8/22/2019 10:01:13 AM
DoWork is running
8/22/2019 10:06:13 AM
DoWork is running
8/22/2019 10:11:13 AM
DoWork is running
8/22/2019 10:16:13 AM
DoWork is running
8/22/2019 10:21:13 AM
DoWork is running
8/22/2019 10:26:13 AM
DoWork is running
8/22/2019 10:31:13 AM
DoWork is running
8/22/2019 10:36:13 AM
DoWork is running
8/22/2019 10:41:13 AM
DoWork is running
8/22/2019 10:46:13 AM
DoWork is running
8/22/2019 10:51:13 AM
DoWork is running
8/22/2019 10:56:13 AM
DoWork is running
8/22/2019 11:01:13 AM
DoWork is running
8/22/2019 11:06:13 AM
DoWork is running
8/22/2019 11:11:13 AM
DoWork is running
8/22/2019 11:16:13 AM
DoWork is running
8/22/2019 11:21:13 AM
DoWork is running
8/22/2019 11:26:13 AM
DoWork is running
8/22/2019 11:31:13 AM
DoWork is running
8/22/2019 11:36:13 AM
DoWork is running
8/22/2019 11:41:13 AM
DoWork is running
8/22/2019 11:46:13 AM
DoWork is running
8/22/2019 11:51:13 AM
DoWork is running
8/22/2019 11:56:13 AM
DoWork is running
8/22/2019 12:01:13 PM
DoWork is running
8/22/2019 12:06:13 PM
DoWork is running
8/22/2019 12:11:13 PM
DoWork is running
8/22/2019 12:16:13 PM
DoWork is running
8/22/2019 12:21:13 PM
DoWork is running
8/22/2019 12:26:13 PM
DoWork is running
8/22/2019 12:31:13 PM
DoWork is running
8/22/2019 12:36:13 PM
DoWork is running
8/22/2019 12:41:13 PM
DoWork is running
8/22/2019 12:46:13 PM
DoWork is running
